-------------------------------------------------------------------------------
Test set: agl.tp6.TestPlanningCombinaison
-------------------------------------------------------------------------------
Tests run: 4, Failures: 0, Errors: 0, Skipped: 0, Time elapsed: 0.002 s - in agl.tp6.TestPlanningCombinaison
