<?xml version="1.0" encoding="UTF-8"?>
<testsuite xmlns:xsi="http://www.w3.org/2001/XMLSchema-instance" xsi:noNamespaceSchemaLocation="https://maven.apache.org/surefire/maven-surefire-plugin/xsd/surefire-test-report.xsd" name="agl.tp6.TestGroupe" time="0.069" tests="16" errors="0" skipped="0" failures="0">
  <properties>
    <property name="awt.toolkit" value="sun.awt.X11.XToolkit"/>
    <property name="java.specification.version" value="11"/>
    <property name="sun.cpu.isalist" value=""/>
    <property name="sonar.login" value="95a1c593e5d7639738890ee2810a04e18fec204b"/>
    <property name="sun.jnu.encoding" value="UTF-8"/>
    <property name="java.class.path" value="/home/e20200010573/Bureau/AGL-presentation2/tp6-Sonar/tp6-sonar/target/test-classes:/home/e20200010573/Bureau/AGL-presentation2/tp6-Sonar/tp6-sonar/target/classes:/home/e20200010573/.m2/repository/org/apache/commons/commons-lang3/3.12.0/commons-lang3-3.12.0.jar:/home/e20200010573/.m2/repository/com/fasterxml/jackson/core/jackson-databind/2.13.0/jackson-databind-2.13.0.jar:/home/e20200010573/.m2/repository/com/fasterxml/jackson/core/jackson-annotations/2.13.0/jackson-annotations-2.13.0.jar:/home/e20200010573/.m2/repository/com/fasterxml/jackson/core/jackson-core/2.13.0/jackson-core-2.13.0.jar:/home/e20200010573/.m2/repository/org/junit/jupiter/junit-jupiter-api/5.7.0/junit-jupiter-api-5.7.0.jar:/home/e20200010573/.m2/repository/org/apiguardian/apiguardian-api/1.1.0/apiguardian-api-1.1.0.jar:/home/e20200010573/.m2/repository/org/opentest4j/opentest4j/1.2.0/opentest4j-1.2.0.jar:/home/e20200010573/.m2/repository/org/junit/platform/junit-platform-commons/1.7.0/junit-platform-commons-1.7.0.jar:/home/e20200010573/.m2/repository/org/junit/jupiter/junit-jupiter-engine/5.7.0/junit-jupiter-engine-5.7.0.jar:/home/e20200010573/.m2/repository/org/junit/platform/junit-platform-engine/1.7.0/junit-platform-engine-1.7.0.jar:/home/e20200010573/.m2/repository/org/junit/jupiter/junit-jupiter-params/5.7.0/junit-jupiter-params-5.7.0.jar:/home/e20200010573/.m2/repository/org/junit/platform/junit-platform-runner/1.8.1/junit-platform-runner-1.8.1.jar:/home/e20200010573/.m2/repository/junit/junit/4.13.2/junit-4.13.2.jar:/home/e20200010573/.m2/repository/org/hamcrest/hamcrest-core/1.3/hamcrest-core-1.3.jar:/home/e20200010573/.m2/repository/org/junit/platform/junit-platform-launcher/1.8.1/junit-platform-launcher-1.8.1.jar:/home/e20200010573/.m2/repository/org/junit/platform/junit-platform-suite-api/1.8.1/junit-platform-suite-api-1.8.1.jar:/home/e20200010573/.m2/repository/org/junit/platform/junit-platform-suite-commons/1.8.1/junit-platform-suite-commons-1.8.1.jar:/home/e20200010573/.m2/repository/com/github/javafaker/javafaker/0.12/javafaker-0.12.jar:/home/e20200010573/.m2/repository/com/github/mifmif/generex/1.0.2/generex-1.0.2.jar:/home/e20200010573/.m2/repository/dk/brics/automaton/automaton/1.11-8/automaton-1.11-8.jar:/home/e20200010573/.m2/repository/org/mockito/mockito-junit-jupiter/3.12.4/mockito-junit-jupiter-3.12.4.jar:/home/e20200010573/.m2/repository/org/mockito/mockito-core/3.12.4/mockito-core-3.12.4.jar:/home/e20200010573/.m2/repository/net/bytebuddy/byte-buddy/1.11.13/byte-buddy-1.11.13.jar:/home/e20200010573/.m2/repository/net/bytebuddy/byte-buddy-agent/1.11.13/byte-buddy-agent-1.11.13.jar:/home/e20200010573/.m2/repository/org/objenesis/objenesis/3.2/objenesis-3.2.jar:/home/e20200010573/.m2/repository/org/mockito/mockito-inline/3.8.0/mockito-inline-3.8.0.jar:"/>
    <property name="java.vm.vendor" value="Ubuntu"/>
    <property name="sun.arch.data.model" value="64"/>
    <property name="java.vendor.url" value="https://ubuntu.com/"/>
    <property name="user.timezone" value=""/>
    <property name="java.vm.specification.version" value="11"/>
    <property name="os.name" value="Linux"/>
    <property name="sun.java.launcher" value="SUN_STANDARD"/>
    <property name="user.country" value="FR"/>
    <property name="sun.boot.library.path" value="/usr/lib/jvm/java-11-openjdk-amd64/lib"/>
    <property name="sun.java.command" value="/home/e20200010573/Bureau/AGL-presentation2/tp6-Sonar/tp6-sonar/target/surefire/surefirebooter3752967638773297761.jar /home/e20200010573/Bureau/AGL-presentation2/tp6-Sonar/tp6-sonar/target/surefire 2021-12-15T12-21-36_308-jvmRun1 surefire18194303128735507873tmp surefire_03259735597694454115tmp"/>
    <property name="jdk.debug" value="release"/>
    <property name="surefire.test.class.path" value="/home/e20200010573/Bureau/AGL-presentation2/tp6-Sonar/tp6-sonar/target/test-classes:/home/e20200010573/Bureau/AGL-presentation2/tp6-Sonar/tp6-sonar/target/classes:/home/e20200010573/.m2/repository/org/apache/commons/commons-lang3/3.12.0/commons-lang3-3.12.0.jar:/home/e20200010573/.m2/repository/com/fasterxml/jackson/core/jackson-databind/2.13.0/jackson-databind-2.13.0.jar:/home/e20200010573/.m2/repository/com/fasterxml/jackson/core/jackson-annotations/2.13.0/jackson-annotations-2.13.0.jar:/home/e20200010573/.m2/repository/com/fasterxml/jackson/core/jackson-core/2.13.0/jackson-core-2.13.0.jar:/home/e20200010573/.m2/repository/org/junit/jupiter/junit-jupiter-api/5.7.0/junit-jupiter-api-5.7.0.jar:/home/e20200010573/.m2/repository/org/apiguardian/apiguardian-api/1.1.0/apiguardian-api-1.1.0.jar:/home/e20200010573/.m2/repository/org/opentest4j/opentest4j/1.2.0/opentest4j-1.2.0.jar:/home/e20200010573/.m2/repository/org/junit/platform/junit-platform-commons/1.7.0/junit-platform-commons-1.7.0.jar:/home/e20200010573/.m2/repository/org/junit/jupiter/junit-jupiter-engine/5.7.0/junit-jupiter-engine-5.7.0.jar:/home/e20200010573/.m2/repository/org/junit/platform/junit-platform-engine/1.7.0/junit-platform-engine-1.7.0.jar:/home/e20200010573/.m2/repository/org/junit/jupiter/junit-jupiter-params/5.7.0/junit-jupiter-params-5.7.0.jar:/home/e20200010573/.m2/repository/org/junit/platform/junit-platform-runner/1.8.1/junit-platform-runner-1.8.1.jar:/home/e20200010573/.m2/repository/junit/junit/4.13.2/junit-4.13.2.jar:/home/e20200010573/.m2/repository/org/hamcrest/hamcrest-core/1.3/hamcrest-core-1.3.jar:/home/e20200010573/.m2/repository/org/junit/platform/junit-platform-launcher/1.8.1/junit-platform-launcher-1.8.1.jar:/home/e20200010573/.m2/repository/org/junit/platform/junit-platform-suite-api/1.8.1/junit-platform-suite-api-1.8.1.jar:/home/e20200010573/.m2/repository/org/junit/platform/junit-platform-suite-commons/1.8.1/junit-platform-suite-commons-1.8.1.jar:/home/e20200010573/.m2/repository/com/github/javafaker/javafaker/0.12/javafaker-0.12.jar:/home/e20200010573/.m2/repository/com/github/mifmif/generex/1.0.2/generex-1.0.2.jar:/home/e20200010573/.m2/repository/dk/brics/automaton/automaton/1.11-8/automaton-1.11-8.jar:/home/e20200010573/.m2/repository/org/mockito/mockito-junit-jupiter/3.12.4/mockito-junit-jupiter-3.12.4.jar:/home/e20200010573/.m2/repository/org/mockito/mockito-core/3.12.4/mockito-core-3.12.4.jar:/home/e20200010573/.m2/repository/net/bytebuddy/byte-buddy/1.11.13/byte-buddy-1.11.13.jar:/home/e20200010573/.m2/repository/net/bytebuddy/byte-buddy-agent/1.11.13/byte-buddy-agent-1.11.13.jar:/home/e20200010573/.m2/repository/org/objenesis/objenesis/3.2/objenesis-3.2.jar:/home/e20200010573/.m2/repository/org/mockito/mockito-inline/3.8.0/mockito-inline-3.8.0.jar:"/>
    <property name="sun.cpu.endian" value="little"/>
    <property name="user.home" value="/home/e20200010573"/>
    <property name="user.language" value="fr"/>
    <property name="java.specification.vendor" value="Oracle Corporation"/>
    <property name="java.version.date" value="2021-04-20"/>
    <property name="java.home" value="/usr/lib/jvm/java-11-openjdk-amd64"/>
    <property name="file.separator" value="/"/>
    <property name="basedir" value="/home/e20200010573/Bureau/AGL-presentation2/tp6-Sonar/tp6-sonar"/>
    <property name="java.vm.compressedOopsMode" value="Zero based"/>
    <property name="line.separator" value="&#10;"/>
    <property name="java.specification.name" value="Java Platform API Specification"/>
    <property name="java.vm.specification.vendor" value="Oracle Corporation"/>
    <property name="java.awt.graphicsenv" value="sun.awt.X11GraphicsEnvironment"/>
    <property name="surefire.real.class.path" value="/home/e20200010573/Bureau/AGL-presentation2/tp6-Sonar/tp6-sonar/target/surefire/surefirebooter3752967638773297761.jar"/>
    <property name="sun.management.compiler" value="HotSpot 64-Bit Tiered Compilers"/>
    <property name="java.runtime.version" value="11.0.11+9-Ubuntu-0ubuntu2.20.04"/>
    <property name="user.name" value="jonathan.bazire@etu.umontpellier.fr"/>
    <property name="path.separator" value=":"/>
    <property name="os.version" value="5.4.0-91-generic"/>
    <property name="java.runtime.name" value="OpenJDK Runtime Environment"/>
    <property name="file.encoding" value="UTF-8"/>
    <property name="java.vm.name" value="OpenJDK 64-Bit Server VM"/>
    <property name="localRepository" value="/home/e20200010573/.m2/repository"/>
    <property name="java.vendor.url.bug" value="https://bugs.launchpad.net/ubuntu/+source/openjdk-lts"/>
    <property name="java.io.tmpdir" value="/tmp"/>
    <property name="java.version" value="11.0.11"/>
    <property name="user.dir" value="/home/e20200010573/Bureau/AGL-presentation2/tp6-Sonar/tp6-sonar"/>
    <property name="os.arch" value="amd64"/>
    <property name="java.vm.specification.name" value="Java Virtual Machine Specification"/>
    <property name="java.awt.printerjob" value="sun.print.PSPrinterJob"/>
    <property name="sun.os.patch.level" value="unknown"/>
    <property name="sonar.projectKey" value="JonathanP2501_tp6-sonar"/>
    <property name="java.library.path" value=":/usr/java/packages/lib:/usr/lib/x86_64-linux-gnu/jni:/lib/x86_64-linux-gnu:/usr/lib/x86_64-linux-gnu:/usr/lib/jni:/lib:/usr/lib"/>
    <property name="java.vm.info" value="mixed mode, sharing"/>
    <property name="java.vendor" value="Ubuntu"/>
    <property name="java.vm.version" value="11.0.11+9-Ubuntu-0ubuntu2.20.04"/>
    <property name="sun.io.unicode.encoding" value="UnicodeLittle"/>
    <property name="java.class.version" value="55.0"/>
  </properties>
  <testcase name="testGroupeAjouterVoeuCorrect" classname="agl.tp6.TestGroupe" time="0"/>
  <testcase name="testGroupeSetVoeu" classname="agl.tp6.TestGroupe" time="0"/>
  <testcase name="testGroupeConstructorAllInfo" classname="agl.tp6.TestGroupe" time="0"/>
  <testcase name="testGroupeStringl" classname="agl.tp6.TestGroupe" time="0"/>
  <testcase name="testGroupeVoeuFiniNon" classname="agl.tp6.TestGroupe" time="0"/>
  <testcase name="testGroupeVoeuFiniOui" classname="agl.tp6.TestGroupe" time="0"/>
  <testcase name="testGroupeVide" classname="agl.tp6.TestGroupe" time="0"/>
  <testcase name="testGroupeToString" classname="agl.tp6.TestGroupe" time="0.001"/>
  <testcase name="testGroupeChangementNom" classname="agl.tp6.TestGroupe" time="0.001"/>
  <testcase name="testGroupeAjouterVoeuSujetDejaChoisi" classname="agl.tp6.TestGroupe" time="0.002"/>
  <testcase name="testGroupeIdDeuxGroupes" classname="agl.tp6.TestGroupe" time="0"/>
  <testcase name="testGroupeToStringUnVoeu" classname="agl.tp6.TestGroupe" time="0.001"/>
  <testcase name="testGroupeAddSixVoeuxAndReady" classname="agl.tp6.TestGroupe" time="0.001"/>
  <testcase name="testGroupeAddOneVoeuAndNotReady" classname="agl.tp6.TestGroupe" time="0.001"/>
  <testcase name="testGroupeAjouterVoeuOrdreHorsDesClous{int, String}[1]" classname="agl.tp6.TestGroupe" time="0.022"/>
  <testcase name="testGroupeAjouterVoeuOrdreHorsDesClous{int, String}[2]" classname="agl.tp6.TestGroupe" time="0.002"/>
</testsuite>