agl/tp6/Sujet.class
agl/tp6/GestionTER.class
agl/tp6/App.class
agl/tp6/exception/AffectationVoeuImpossibleException.class
agl/tp6/AffichageAffectation.class
agl/tp6/hongrois/HongroisAlgo.class
agl/tp6/exception/AffectationImpossibleException.class
agl/tp6/hongrois/Hongrois.class
agl/tp6/PlanningCombinaison.class
agl/tp6/exception/TailleInvalideException.class
agl/tp6/Groupe.class
